<?xml version="1.0" encoding="UTF-8" standalone="no"?>
<!DOCTYPE svg PUBLIC "-//W3C//DTD SVG 1.1//EN"
 "http://www.w3.org/Graphics/SVG/1.1/DTD/svg11.dtd">
<!-- Generated by graphviz version 2.38.0 (20140413.2041)
 -->
<!-- Title: G Pages: 1 -->
<svg width="124pt" height="258pt"
 viewBox="0.00 0.00 124.00 258.00" xmlns="http://www.w3.org/2000/svg" xmlns:xlink="http://www.w3.org/1999/xlink">
<g id="graph0" class="graph" transform="scale(1 1) rotate(0) translate(4 254)">
<title>G</title>
<polygon fill="white" stroke="none" points="-4,4 -4,-254 120,-254 120,4 -4,4"/>
<g id="clust1" class="cluster"><title>cluster_Global</title>
<path fill="none" stroke="gray" d="M20,-8C20,-8 96,-8 96,-8 102,-8 108,-14 108,-20 108,-20 108,-230 108,-230 108,-236 102,-242 96,-242 96,-242 20,-242 20,-242 14,-242 8,-236 8,-230 8,-230 8,-20 8,-20 8,-14 14,-8 20,-8"/>
<text text-anchor="middle" x="58" y="-229.2" font-family="Times New Roman,serif" font-size="11.00" fill="gray">Global</text>
</g>
<!-- \\DbProvider -->
<g id="node1" class="node"><title>\\DbProvider</title>
<polygon fill="none" stroke="black" points="100,-214 16,-214 16,-178 100,-178 100,-214"/>
<text text-anchor="middle" x="58" y="-193.2" font-family="Courier,monospace" font-size="11.00">DbProvider</text>
</g>
<!-- \\Schedule -->
<g id="node2" class="node"><title>\\Schedule</title>
<polygon fill="none" stroke="black" points="93.5,-160 22.5,-160 22.5,-124 93.5,-124 93.5,-160"/>
<text text-anchor="middle" x="58" y="-139.2" font-family="Courier,monospace" font-size="11.00">Schedule</text>
</g>
<!-- \\SpecialDay -->
<g id="node3" class="node"><title>\\SpecialDay</title>
<polygon fill="none" stroke="black" points="100,-106 16,-106 16,-70 100,-70 100,-106"/>
<text text-anchor="middle" x="58" y="-85.2" font-family="Courier,monospace" font-size="11.00">SpecialDay</text>
</g>
<!-- \\Vendor -->
<g id="node4" class="node"><title>\\Vendor</title>
<polygon fill="none" stroke="black" points="86.5,-52 29.5,-52 29.5,-16 86.5,-16 86.5,-52"/>
<text text-anchor="middle" x="58" y="-31.2" font-family="Courier,monospace" font-size="11.00">Vendor</text>
</g>
</g>
</svg>
